…
homicides_summary_df
```

    ## # A tibble: 50 × 3
    ##    city_state      total_num_homicides total_num_unsolved_homicides
    ##    <chr>                         <int>                        <int>
    ##  1 Albuquerque, NM                 375                          144
    ##  2 Atlanta, GA                     973                          373
    ##  3 Baltimore, MD                  2827                         1825
    ##  4 Baton Rouge, LA                 424                          196
    ##  5 Birmingham, AL                  799                          346
    ##  6 Boston, MA                      612                          309
    ##  7 Buffalo, NY                     520                          318
    ##  8 Charlotte, NC                   687                          206
    ##  9 Chicago, IL                    5535                         4073
    ## 10 Cincinnati, OH                  694                          309
    ## # ℹ 40 more rows
…
